…
#> Attaching package: 'dplyr'
#> The following objects are masked from 'package:stats':
#> 
#>     filter, lag
#> The following objects are masked from 'package:base':
#> 
#>     intersect, setdiff, setequal, union
pnad2019_4 %>% 
  group_by(vinculo_primario) %>% 
  participacao(sexo)
#> Warning in (~sexo) == df[[var]]: comprimento do objeto maior não é múltiplo
#> do comprimento do objeto menor
#> Warning in (~sexo) == df[[var]]: comprimento do objeto maior não é múltiplo
#> do comprimento do objeto menor
#> # A tibble: 22 x 3
#> # Groups:   sexo [2]
#>    vinculo_primario sexo  participacao
#>    <chr>            <chr>        <dbl>
#>  1 01               1             48.1
#>  2 01               2             51.9
#>  3 02               1             48.1
#>  4 02               2             51.9
#>  5 03               1             48.1
#>  6 03               2             51.9
#>  7 04               1             48.1
#>  8 04               2             51.9
#>  9 05               1             48.1
#> 10 05               2             51.9
#> # … with 12 more rows

pnad2019_4 %>% 
  tidyr::nest(data = -vinculo_primario) %>%
  mutate(prop = purrr::map(data, participacao, sexo)) %>% 
  select(-data) %>% 
  tidyr::unnest(prop)
#> # A tibble: 22 x 3
#>    vinculo_primario sexo  participacao
#>    <chr>            <chr>        <dbl>
#>  1 01               1             59.1
#>  2 01               2             40.9
#>  3 <NA>             1             41.6
#>  4 <NA>             2             58.4
#>  5 07               1             43.3
#>  6 07               2             56.7
#>  7 09               1             64.5
#>  8 09               2             35.5
#>  9 02               1             67.2
#> 10 02               2             32.8
#> # … with 12 more rows
```
…
